…
    ## Parsed with column specification:
    ## cols(
    ##   country = col_character(),
    ##   year = col_integer(),
    ##   pop = col_double(),
    ##   continent = col_character(),
    ##   lifeExp = col_double(),
    ##   gdpPercap = col_double()
    ## )

    ## # A tibble: 1,704 × 6
    ##        country  year      pop continent lifeExp gdpPercap
    ##          <chr> <int>    <dbl>     <chr>   <dbl>     <dbl>
    ## 1  Afghanistan  1952  8425333      Asia  28.801  779.4453
    ## 2  Afghanistan  1957  9240934      Asia  30.332  820.8530
    ## 3  Afghanistan  1962 10267083      Asia  31.997  853.1007
    ## 4  Afghanistan  1967 11537966      Asia  34.020  836.1971
    ## 5  Afghanistan  1972 13079460      Asia  36.088  739.9811
    ## 6  Afghanistan  1977 14880372      Asia  38.438  786.1134
    ## 7  Afghanistan  1982 12881816      Asia  39.854  978.0114
    ## 8  Afghanistan  1987 13867957      Asia  40.822  852.3959
    ## 9  Afghanistan  1992 16317921      Asia  41.674  649.3414
    ## 10 Afghanistan  1997 22227415      Asia  41.763  635.3414
    ## # ... with 1,694 more rows

Read the statistical summary table generated by ex1\_2.R:

``` r
(summarized_data <- readr::read_csv("../results/summarized_data.csv"))
```

    ## Parsed with column specification:
    ## cols(
    ##   country = col_character(),
    ##   lifeExp = col_double(),
    ##   gdpPercap = col_double()
    ## )

    ## # A tibble: 142 × 3
    ##          country lifeExp gdpPercap
    ##            <chr>   <dbl>     <dbl>
    ## 1         Rwanda  23.599  493.3239
    ## 2    Afghanistan  28.801  635.3414
    ## 3         Gambia  30.000  485.2307
    ## 4         Angola  30.015 2277.1409
    ## 5   Sierra Leone  30.331  574.6482
    ## 6       Cambodia  31.220  368.4693
    ## 7     Mozambique  31.286  389.8762
    ## 8   Burkina Faso  31.975  543.2552
    ## 9  Guinea-Bissau  32.500  299.8503
    ## 10   Yemen, Rep.  32.548  781.7176
    ## # ... with 132 more rows
…
